<?xml version="1.0" encoding="utf-8"?>
<!-- Svg Vector Icons : http://www.onlinewebfonts.com/icon -->
<!DOCTYPE svg PUBLIC "-//W3C//DTD SVG 1.1//EN" "http://www.w3.org/Graphics/SVG/1.1/DTD/svg11.dtd">
<svg version="1.1" xmlns="http://www.w3.org/2000/svg" xmlns:xlink="http://www.w3.org/1999/xlink" x="0px" y="0px" viewBox="0 0 256 256" enable-background="new 0 0 256 256" xml:space="preserve">
<metadata> Svg Vector Icons : http://www.onlinewebfonts.com/icon </metadata>
<g><g><g><path fill="#000000" d="M118.9,10.1C102.2,11.8,89.7,15.2,76,22c-12,5.9-20.6,12-30.4,21.5C35.5,53.3,28.2,63.4,21.9,76c-5.8,11.9-9.4,23.6-11.4,37.4c-0.8,5.4-0.8,23.6,0,29.1c3.3,22.9,12.1,43.4,26.1,60.4c32.6,39.6,86.6,53.7,134.2,35.1c30.5-11.9,55.2-36.7,67.2-67.3c4.9-12.6,7.4-24.7,7.9-38.8c1.1-31.9-10.8-62.7-33.1-85.8c-10.2-10.5-20.1-17.7-33-24c-11.6-5.7-22.3-9.1-35.3-11.1C139.9,10.3,122.9,9.7,118.9,10.1z M143.6,22c20.4,3.2,39.1,11.8,54.5,25.1l1.6,1.4l-15.9,15.9l-15.9,15.9l1.8,0.3c1,0.2,3.7,0.8,6.1,1.5l4.3,1.2l13.6-13.6l13.6-13.6l1.4,1.6c19,22,28.4,51,25.7,79.8c-4.7,51.2-45.6,92.2-96.9,96.9c-28.9,2.7-57.8-6.7-79.8-25.7l-1.6-1.4l11.7-11.7l11.7-11.7l-0.7-2.8c-0.4-1.5-0.9-4.1-1-5.7c-0.1-1.6-0.4-3.2-0.5-3.6c-0.1-0.5-5.3,4.3-14.5,13.6l-14.3,14.3l-1.4-1.6C25.4,173,16.5,139.6,23,107.2c5.4-27.5,21.5-51.7,45-67.8c14.1-9.7,31.8-16.1,49.4-18C122.8,20.7,137.8,21.2,143.6,22z"/><path fill="#000000" d="M125.9,41.6c-4.5,4.1-8.9,11.2-10.9,17.8c-1.4,4.6-1.8,13.4-0.7,18.7c1,4.9,2.9,9.5,5.8,13.9c2.3,3.5,7,8.7,7.9,8.7c0.8,0,5.3-4.8,7.2-7.8c5.1-7.5,7.1-13.8,7.1-22.8c0-10.3-3.8-19.5-11.3-27.4l-3-3.1L125.9,41.6z"/><path fill="#000000" d="M90.1,87.6c-0.6,0.1-2,0.3-3.1,0.5c-2.4,0.3-2.7,1.1-2,7.1c1.2,11,6.5,19.5,15.7,25.8c6.1,4.1,12.5,6.9,20.3,8.9c6.2,1.6,5.8,1.9,5.4-5c-0.5-9.9-2.8-18.1-6.5-23.8c-3.9-5.8-11.2-10.8-18.3-12.5C98.4,87.8,92,87.3,90.1,87.6z"/><path fill="#000000" d="M158.2,87.8c-6.7,0.8-13.1,3.7-17.8,8.1c-6.8,6.3-10.3,15.5-11,28.9c-0.3,6.9-0.7,6.6,5.4,5c17.9-4.6,30-14.1,34.3-26.8c1.3-3.8,2.3-11,1.8-13.2c-0.2-1.2-0.6-1.4-2-1.7C165.4,87.5,161.2,87.4,158.2,87.8z"/><path fill="#000000" d="M86.9,127.4c-2.3,0.3-2.6,1.5-2,6.7c1.4,11.8,6.3,19.8,16.2,26.4c4.9,3.3,9.4,5.4,15,7.3c4.2,1.4,9.8,2.6,10.2,2.3c0.4-0.4,0.3-6-0.2-10.5c-1-8.9-4.3-17.4-8.5-22.2c-4.1-4.6-10.5-8.2-17.4-9.6C97.2,127.1,90.6,126.9,86.9,127.4z"/><path fill="#000000" d="M155.4,127.7c-15,3.5-23.4,13.8-25.6,31.4c-0.5,4.3-0.7,10.5-0.3,10.9c0.8,0.7,11.4-2.4,17.3-5c5.4-2.4,12-7.2,15.5-10.8c3.6-3.9,6.3-9,7.7-14.4c1.1-4.4,1.4-11,0.6-11.9C169.6,127,158.9,126.9,155.4,127.7z"/><path fill="#000000" d="M87.7,166.7c-1.2,0.2-2.4,0.5-2.5,0.7c-0.6,0.6-0.2,7.7,0.8,11.6c1.4,6.1,5.1,12.6,9.1,16.2c7,6.3,15.9,10.9,25.7,13.3c2.5,0.6,4.9,1.1,5.3,1.1c0.6,0,0.6-1,0.4-5.9c-0.7-12.9-3.9-22-10.1-28.2C109.3,168.5,98.5,165.2,87.7,166.7z"/><path fill="#000000" d="M156.3,166.9c-6.4,1.2-12.5,4.4-16.8,8.6c-6.1,6.2-9.5,15.4-10.1,28.2c-0.2,5.1-0.2,5.9,0.4,5.9c1.6,0,10.4-2.5,14.1-4c8.8-3.5,16.9-9.5,20.8-15.1c3.4-5,5.2-10,6.1-17c0.5-4.2,0.3-6.2-0.8-6.6C168.4,166.4,159.4,166.3,156.3,166.9z"/></g></g></g>
</svg>